<?xml version="1.0" encoding="UTF-8" standalone="no"?>
<!-- Created with Inkscape (http://www.inkscape.org/) -->

<svg
   xmlns:dc="http://purl.org/dc/elements/1.1/"
   xmlns:cc="http://creativecommons.org/ns#"
   xmlns:rdf="http://www.w3.org/1999/02/22-rdf-syntax-ns#"
   xmlns:svg="http://www.w3.org/2000/svg"
   xmlns="http://www.w3.org/2000/svg"
   xmlns:sodipodi="http://sodipodi.sourceforge.net/DTD/sodipodi-0.dtd"
   xmlns:inkscape="http://www.inkscape.org/namespaces/inkscape"
   width="20mm"
   height="20mm"
   viewBox="0 0 20 20"
   version="1.1"
   id="svg8"
   inkscape:version="0.92.4 (5da689c313, 2019-01-14)"
   sodipodi:docname="unmarkLink.svg"
   inkscape:export-filename="C:\Users\freak\Documents\GitLab\Python\mail-dispatcher\Source\UI\icons\alignLeft.png"
   inkscape:export-xdpi="152.39999"
   inkscape:export-ydpi="152.39999">
  <defs
     id="defs2" />
  <sodipodi:namedview
     id="base"
     pagecolor="#ffffff"
     bordercolor="#666666"
     borderopacity="1.0"
     inkscape:pageopacity="0.0"
     inkscape:pageshadow="2"
     inkscape:zoom="8"
     inkscape:cx="13.451737"
     inkscape:cy="48.515586"
     inkscape:document-units="mm"
     inkscape:current-layer="g4651"
     showgrid="false"
     inkscape:window-width="1920"
     inkscape:window-height="1017"
     inkscape:window-x="-8"
     inkscape:window-y="-8"
     inkscape:window-maximized="1" />
  <metadata
     id="metadata5">
    <rdf:RDF>
      <cc:Work
         rdf:about="">
        <dc:format>image/svg+xml</dc:format>
        <dc:type
           rdf:resource="http://purl.org/dc/dcmitype/StillImage" />
        <dc:title></dc:title>
      </cc:Work>
    </rdf:RDF>
  </metadata>
  <g
     inkscape:label="Ebene 1"
     inkscape:groupmode="layer"
     id="layer1"
     transform="translate(0,-277)">
    <g
       id="g4651"
       transform="matrix(1.3671288,0,0,1.3671288,4.3802933,-96.938779)">
      <circle
         r="6.5"
         style="fill:#787f87;fill-opacity:1;stroke-width:0.24989277"
         cy="280.55765"
         cx="4.1105905"
         id="path3792-1" />
      <path
         inkscape:connector-curvature="0"
         id="path3792"
         d="m 4.1105904,274.0575 a 6.4999999,6.4999999 0 0 0 -6.4642054,5.83169 6.6530439,6.5001232 0 0 1 0.498678,-1.88051 c 0.164574,0.90425 1.10722641,2.59293 1.34617131,2.08928 0.4140094,-0.87263 0.632647,-1.20544 1.2996622,-1.64176 0.66701479,-0.43632 1.18445639,-1.45806 1.67896719,-2.21588 0.4945105,-0.7578 0.609169,-1.32062 0.4366659,-1.71101 -0.03779,-0.0855 -0.2713873,-0.13997 -0.6082318,-0.17467 a 6.6530439,6.5001232 0 0 1 1.8903241,-0.293 6.4999999,6.4999999 0 0 0 -0.078031,-0.004 z m -6.4642054,5.83169 a 6.4999999,6.4999999 0 0 0 -0.02429,0.44648 6.6530439,6.5001232 0 0 1 0.02429,-0.44648 z M 8.3480578,275.6326 c -0.1095128,0.0157 -0.2250551,0.036 -0.3565674,0.0667 -0.835542,0.19448 -0.9531962,0.7348 -1.0914062,1.27435 -0.138209,0.53954 -0.2146591,0.92482 0.1886189,0.90382 0.721906,-0.0376 0.1971769,-0.72099 0.9167399,-0.70849 0.257841,0.004 0.5351158,0.51276 0.4345988,0.72606 -0.100517,0.21329 -0.854741,0.4493 -1.037146,0.30179 -0.1878819,-0.15191 -0.3142618,-0.31967 -0.5090128,-0.0186 -0.16383,0.25332 -0.5265424,0.43219 -0.6898804,0.55139 -0.1633386,0.1192 -0.626532,0.90299 -0.569991,1.15394 0.05654,0.25094 -0.011005,0.92451 0.4413167,0.96841 0.4523216,0.0439 0.4794648,0.13684 0.6867798,-0.30231 0.207314,-0.43917 0.2825669,-0.88338 0.6909139,-0.89038 0.408347,-0.007 0.839684,-0.15754 1.1622029,0.18138 0.344812,0.36234 0.4414145,0.894 0.1348755,1.26814 -0.321201,0.39205 -1.4002664,0.19586 -2.0536214,0.19586 -0.6533546,0 -0.9926055,-0.0267 -1.190625,0.3514 -0.2790981,0.53309 -0.062373,1.29955 0.4940267,1.55546 0.3186234,0.14654 0.9627895,0.65727 1.0381795,1.10897 0.075387,0.45169 0.031776,1.59343 0.4526856,1.66243 0.053559,0.009 0.1175607,0.01 0.1834513,0.008 a 6.4999999,6.4999999 0 0 0 1.3291178,-1.16117 c 0.1445892,-0.64022 0.3671889,-1.56606 0.5162476,-1.73892 0.1627003,-0.30476 0.4536336,-0.43681 0.7694625,-0.52709 a 6.4999999,6.4999999 0 0 0 0.321427,-2.00608 6.4999999,6.4999999 0 0 0 -2.2623942,-4.92477 z m -8.95294189,4.61057 c -0.1036161,-0.002 -0.2136558,-0.001 -0.3312459,0.002 -1.81087601,0.0421 -1.29343201,2.60176 0.1974041,2.98535 0.4855384,0.12493 0.4516652,1.03107 0.3612181,1.98438 a 6.6530439,6.5001232 0 0 1 -1.71410721,-2.73472 6.4999999,6.4999999 0 0 0 5.985681,4.56716 6.6530439,6.5001232 0 0 1 -2.5569497,-0.65629 c 0.2511176,-0.34476 0.5424318,-0.73009 0.9741008,-1.19011 0.7843835,-0.83591 1.5242186,-2.45249 -0.4247803,-3.8194 -0.8774618,-0.61541 -0.93707869,-1.11399 -2.49132089,-1.13792 z m -1.78438691,0.3142 a 6.4999999,6.4999999 0 0 0 0.02894,0.56482 6.6530439,6.5001232 0 0 1 -0.02894,-0.56482 z m 0.0615,0.83199 a 6.4999999,6.4999999 0 0 0 0.06149,0.40049 6.6530439,6.5001232 0 0 1 -0.06149,-0.40049 z m 0.09922,0.5674 a 6.4999999,6.4999999 0 0 0 0.135908,0.52039 6.6530439,6.5001232 0 0 1 -0.135908,-0.52039 z m 6.12314,5.09013 a 6.4999999,6.4999999 0 0 0 0.2160074,0.0109 6.4999999,6.4999999 0 0 0 0.06873,-0.003 6.6530439,6.5001232 0 0 1 -0.2847372,-0.008 z"
         style="fill:#5e5e5e;fill-opacity:1;stroke-width:0.24989277" />
    </g>
    <g
       aria-label="w"
       transform="scale(0.88656853,1.1279444)"
       style="font-style:normal;font-weight:normal;font-size:26.15882492px;line-height:1.25;font-family:sans-serif;letter-spacing:0px;word-spacing:0px;fill:#2c2c2c;fill-opacity:1;stroke:none;stroke-width:0.65397066"
       id="text837">
      <path
         d="m 12.601435,249.26906 3.474219,10.60148 3.065488,-9.23478 h -1.967021 v -1.3667 h 4.917552 v 1.3667 h -1.507198 l -4.036225,12.21086 h -1.954248 l -3.34649,-10.15443 -3.3592634,10.15443 H 6.0106376 L 1.9871855,250.63576 H 0.46721475 v -1.3667 H 6.6109622 v 1.3667 H 4.4140296 l 3.0399416,9.23478 3.4997648,-10.60148 z"
         style="font-style:normal;font-variant:normal;font-weight:normal;font-stretch:normal;font-family:serif;-inkscape-font-specification:serif;stroke-width:0.65397066;fill:#2c2c2c;fill-opacity:1"
         id="path835" />
    </g>
  </g>
</svg>
